[
	{
		"_id": "a-10",
		"_parentId": "co-50",
		"_type": "article",
		"_classes": "",
		"title": "a-10",
		"displayTitle": "",
		"body": ""
	},
  {
		"_id": "a-20",
		"_parentId": "co-100",
		"_type": "article",
		"_classes": "",
		"title": "a-20",
		"displayTitle": "",
		"body": ""
	},
  {
		"_id": "a-30",
		"_parentId": "co-150",
		"_type": "article",
		"_classes": "",
		"title": "a-30",
		"displayTitle": "",
		"body": ""
	},
  {
		"_id": "a-40",
		"_parentId": "co-200",
		"_type": "article",
		"_classes": "",
		"title": "a-40",
		"displayTitle": "",
		"body": ""
	},
  {
		"_id": "a-50",
		"_parentId": "co-250",
		"_type": "article",
		"_classes": "",
		"title": "a-50",
		"displayTitle": "",
		"body": ""
	},
  {
		"_id": "a-60",
		"_parentId": "co-300",
		"_type": "article",
		"_classes": "",
		"title": "a-60",
		"displayTitle": "",
		"body": ""
	},
	{
		"_id": "a-70",
		"_parentId": "co-350",
		"_type": "article",
		"_classes": "",
		"title": "a-70",
		"displayTitle": "",
		"body": ""
	}
]
