[
  {
      "_id":"c-30",
      "_parentId":"b-05",
      "_type":"component",
      "_component":"graphic",
      "_setCompletionOn": "inview",
      "_classes":"",
      "_layout":"full",
      "title":"",
      "displayTitle":"",
      "body":"Video is an ad format that you can use within your campaigns across the Facebook family of apps and services. Whether you want people to download your mobile app, to know about a new product or service you've launched, shop your online store, or connect with your brand on an emotional level, including video ads in your marketing mix is a powerful way to engage your audience.<br><br>To run a campaign that includes the video ad format, start in Ads Manager and use the same workflow you’d use for any other Facebook campaign.",
      "instruction":"",
      "_pageLevelProgress": {
          "_isEnabled": false
      },
      "_graphic": {
          "alt": "alt text",
          "src": "course/en/images/01_intro_to_video_buying/ads_manager.png",
          "attribution":""
      }
  },
  {
      "_id":"c-40",
      "_parentId":"b-05",
      "_type":"component",
      "_component":"text",
      "_classes":"",
      "_layout":"full",
      "title":"Introduction",
      "displayTitle":"",
      "body":"<ol><li>Set your objective</li><li>Define the audience, placement, budget, schedule, and delivery optimizations for your campaign</li><li>Build and preview your ad</li></ol>",
      "instruction":"",
      "_pageLevelProgress": {
          "_isEnabled": true
      }
  },
  {
      "_id":"c-45",
      "_parentId":"b-32",
      "_type":"component",
      "_component":"twoColumn",
      "_classes":"",
      "_layout":"full",
      "title":"2 columns",
      "displayTitle":"",
      "body":"",
      "instruction":"",
      "fontSize":"4vmin",
      "lineHeight":"",
      "fontColor":"#ffffff",
      "leftColumnWidth": "25%",
      "rightColumnWidth": "75%",
      "marginTop": "15px",
      "imageLayout": "left",
      "text": "If you're new to running ads within the Facebook family of apps and services (Facebook, Instagram, Messenger, and Audience Network), start with the Campaign Structure course. If you're new to the video ad format, start with the Video Foundations course",
      "_graphic": {
          "alt": "alt text",
          "src": "course/en/images/global/callout.png",
          "attribution":""
      },
      "imageHeading": "",
      "imageSubHeading": ""
  },
  {
      "_id":"c-46",
      "_parentId":"b-33",
      "_type":"component",
      "_component":"static-flowchart",
      "_classes":"",
      "_layout":"full",
      "title":"",
      "displayTitle":"",
      "body":"After taking this course, you should be able to:",
      "instruction":"",
      "_pageLevelProgress": {
          "_isEnabled": false
      },
      "_items": [
          {
              "title": "",
              "body" : "Choose a campaign objective for your video ad campaign that aligns with your primary business goal.",
              "image": {
                  "src": "course/en/images/01_intro_to_video_buying/choosing_a_campaign_objective.png",
                  "caption": ""
              }
          },
          {
              "title": "",
              "body" : "Tell the system how you want to deliver your video ads using delivery optimization.",
              "image": {
                  "src": "course/en/images/01_intro_to_video_buying/delivery_optimization_options.png",
                  "caption": ""
              }
          },
          {
              "title": "",
              "body" : "Understand how campaign objectives determine your video ad placement options.",
              "image": {
                  "src": "course/en/images/01_intro_to_video_buying/placement_options.png",
                  "caption": ""
              }
          },
          {
              "title": "",
              "body" : "Choose the billing option that best suits your needs.",
              "image": {
                  "src": "course/en/images/01_intro_to_video_buying/when_you_get_charged.png",
                  "caption": ""
              }
          },
          {
              "title": "",
              "body" : "Understand the tradeoffs between a campaign that reaches more people and one that gets longer video views.",
              "image": {
                  "src": "course/en/images/01_intro_to_video_buying/putting_it_all_together.png",
                  "caption": ""
              }
          }
      ]
  },
  {
      "_id":"c-47",
      "_parentId":"b-34",
      "_type":"component",
      "_component":"text",
      "_classes":"",
      "_layout":"full",
      "title":"",
      "displayTitle":"",
      "body":"Let's start with the first step in creating a campaign that includes video ads.",
      "instruction":"",
      "_pageLevelProgress": {
          "_isEnabled": false
      }
  },
  {
      "_id": "c-50",
      "_parentId": "b-35",
      "_type": "component",
      "_component": "co-jump",
      "_classes": "color-test",
      "_preLinkBody": "Up next:",
      "_linkBody": "Choosing an Objective",
      "_postLinkBody": ".",
      "_link": "#/id/co-100",
      "_graphic": "adapt/css/assets/icon_nextPage.png",
      "_pageLevelProgress": {
          "_isEnabled": false
      }
  },
  {
      "_id":"c-60",
      "_parentId":"b-40",
      "_type":"component",
      "_component":"graphic",
      "_setCompletionOn": "inview",
      "_classes":"",
      "_layout":"full",
      "title":"",
      "displayTitle":"",
      "body":"",
      "instruction":"",
      "_graphic": {
          "alt": "alt text",
          "src": "course/en/images/02_choosing_an_objective/m2-main.png",
          "attribution":""
      }
  },
  {
      "_id":"c-70",
      "_parentId":"b-40",
      "_type":"component",
      "_component":"graphic",
      "_setCompletionOn": "inview",
      "_classes":"",
      "_layout":"full",
      "title":"",
      "displayTitle":"",
      "body":"The first step to creating your video ad campaign is selecting a campaign objective. What do you want people to do when they see your ads? Make sure the campaign objective you choose is aligned with the answer to that question.<br><br>When you select an objective in Ads Manager, that selection can come at the expense of another objective, so it's important to understand the tradeoffs, which we'll examine throughout this course.<br><br>Choose an objective that matches your business goal.",
      "instruction":"",
      "_pageLevelProgress": {
      "_isEnabled": false
    },
      "_graphic": {
          "alt": "alt text",
          "src": "course/en/images/02_choosing_an_objective/video_ads_buying_and_tradeoffs_screen_1.png",
          "attribution":""
      }
  },
  {
      "_id":"c-90",
      "_parentId":"b-70",
      "_type":"component",
      "_component":"text",
      "_classes":"",
      "_layout":"full",
      "title":"We support video as a format across objectives.",
      "displayTitle":"We support video as a format across objectives.",
      "body":"Whether your goal is to create awareness, encourage consideration, or drive conversion, we offer campaign objectives to support you. For example, if you want to send people to a website, app, or Messenger conversation, choose the Traffic objective. If you want to show your ad to the maximum number of people, choose Reach. Each campaign objective is aligned with a specific business goal.<br><br>For marketers building a brand using video ads, we recommend choosing from the following list of campaign objectives:<br><br><ul><li>Brand Awareness: To show your video ad to people within your target audience who are most likely to remember it.</li><li>Reach: To show your video ad to as many people as possible.</li><li>Video Views: To show your video ad to the people within your target audience who are most likely to watch it.</li></ul><br><br>For marketers who want to drive acquisition, sales, or other conversions using video ads, we recommend choosing from the following list of campaign objectives:<br><br><li>Lead Generation: To collect lead information, like email addresses, from people interested in your business</li><li>Traffic: To increase the number of visits to your website or get more people to use your app</li><li>Store Visits: To promote multiple business locations to people who are nearby</li><li>App Installs: To send people to an app store where they can download your app</li><li>Messages: For businesses that want to open conversations with customers at scale.</li></ul><br><br>Depending on which objective you choose, your options at the ad-set level (where you select your audience, placements, budget, and schedule) will vary slightly. For the rest of this module, we'll focus on brand-building objectives for video. Let’s take a closer look at delivery optimization in the next section.",
      "instruction":"",
      "_pageLevelProgress": {
          "_isEnabled": true
      }
  },
  {
      "_id": "c-120",
      "_parentId": "b-100",
      "_type": "component",
      "_component": "co-jump",
      "_classes": "color-test",
      "_preLinkBody": "Up next:",
      "_linkBody": "Optimizing Delivery",
      "_postLinkBody": ".",
      "_link": "#/id/co-150",
      "_graphic": "adapt/css/assets/icon_nextPage.png",
      "_pageLevelProgress": {
          "_isEnabled": false
      }
  },
  {
      "_id":"c-130",
      "_parentId":"b-110",
      "_type":"component",
      "_component":"graphic",
      "_setCompletionOn": "inview",
      "_classes":"",
      "_layout":"full",
      "title":"",
      "displayTitle":"",
      "body":"",
      "instruction":"",
      "_graphic": {
          "alt": "alt text",
          "src": "course/en/images/03_optimizing_delivery/m3_main.png",
          "attribution":""
      }
  },
  {
      "_id":"c-140",
      "_parentId":"b-110",
      "_type":"component",
      "_component":"text",
      "_classes":"",
      "_layout":"full",
      "title":"",
      "displayTitle":"",
      "body":"Optimization for ad delivery happens at the ad-set level within the “Budget & Schedule” section of campaign creation. When you make your “Optimization for Ad Delivery” choice for an ad set, you're telling us to get you as many/much of that result as efficiently as possible. You can use these settings to further fine tune your objective. Your options here will vary depending on the objective you set at the campaign level.<br><br>Keep in mind: the buying type you choose (reach and frequency buying versus auction buying) will also determine your delivery-optimization options. In this course, we'll create our comparisons assuming the auction buying method has been selected.<br><br>Let's look at the delivery optimizations available for the three objectives we're focusing on today.",
      "instruction":"",
      "_pageLevelProgress": {
          "_isEnabled": false
      }
  },
  {
      "_id":"c-150",
      "_parentId":"b-120",
      "_type":"component",
      "_component":"graphic",
      "_setCompletionOn": "inview",
      "_classes":"",
      "_layout":"full",
      "title":"Delivery optimization options within the Reach objective",
      "displayTitle":"Delivery optimization options within the Reach objective",
      "instruction":"",
      "_pageLevelProgress": {
      "_isEnabled": true
      },
      "_graphic": {
          "alt": "alt text",
          "src": "course/en/images/03_optimizing_delivery/video_ads_buying_and_tradeoffs_bao_optimizations_screen4.png",
          "attribution":""
      }
  },
  {
      "_id":"c-160",
      "_parentId":"b-120",
      "_type":"component",
      "_component":"text",
      "_classes":"",
      "_layout":"full",
      "title":"",
      "displayTitle":"",
      "body":"Within the <strong>Reach objective</strong> for example, you have two delivery optimization options: Reach and Impressions. If you choose to optimize delivery for <strong>reach</strong>, we'll serve your ads to the maximum number of people. If you choose to optimize delivery for <strong>impressions</strong>, we'll deliver your ads to people as many times as possible.",
      "instruction":"",
      "_pageLevelProgress": {
          "_isEnabled": false
      }
  },
  {
      "_id":"c-170",
      "_parentId":"b-140",
      "_type":"component",
      "_component":"graphic",
      "_setCompletionOn": "inview",
      "_classes":"",
      "_layout":"full",
      "title":"Delivery optimization options within the Brand Awareness objective",
      "displayTitle":"Delivery optimization options within the Brand Awareness objective",
      "body":"",
      "instruction":"",
      "_pageLevelProgress": {
          "_isEnabled": true
      },
      "_graphic": {
          "alt": "alt text",
          "src": "course/en/images/03_optimizing_delivery/video_ads_buying_and_tradeoffs_reach_optimizations_screen3.png",
          "attribution":""
      }
  },
  {
      "_id":"c-180",
      "_parentId":"b-140",
      "_type":"component",
      "_component":"text",
      "_classes":"",
      "_layout":"full",
      "title":"",
      "displayTitle":"",
      "body":"Within the <strong>Brand Awareness objective</strong>, the system will automatically optimize your campaign delivery for brand awareness. That means we'll serve your ads to the people most likely to remember them. To help us improve delivery optimization, we may survey a small section of your audience.",
      "instruction":"",
      "_pageLevelProgress": {
          "_isEnabled": false
      }
  },
  {
      "_id":"c-190",
      "_parentId":"b-160",
      "_type":"component",
      "_component":"graphic",
      "_setCompletionOn": "inview",
      "_classes":"",
      "_layout":"full",
      "title":"Delivery optimization options within the Video Views objective",
      "displayTitle":"Delivery optimization options within the Video Views objective",
      "body":"",
      "instruction":"",
      "_pageLevelProgress": {
          "_isEnabled": true
      },
      "_graphic": {
          "alt": "alt text",
          "src": "course/en/images/03_optimizing_delivery/video_ads_buying_and_tradeoffs_vv_optimizations_screen5.png",
          "attribution":""
      }
  },
  {
      "_id":"c-195",
      "_parentId":"b-160",
      "_type":"component",
      "_component":"text",
      "_classes":"",
      "_layout":"full",
      "title":"",
      "displayTitle":"",
      "body":"Within the <strong>Video Views objective</strong>, the system will automatically optimize delivery for <strong>video views</strong> and serve your ad to the people within your target audience who are most likely to view your ad for at least 10 seconds. If you plan to measure your campaign's performance based on getting the longest possible watch time for your ads on Facebook, this optimization would be ideal.",
      "instruction":"",
      "_pageLevelProgress": {
          "_isEnabled": false
      }
  },
  {
      "_id": "c-200",
      "_parentId": "b-180",
      "_type": "component",
      "_component": "co-jump",
      "_classes": "color-test",
      "_preLinkBody": "Up Next:",
      "_linkBody": "Placement Options",
      "_postLinkBody": ".",
      "_link": "#/id/co-200",
      "_graphic": "adapt/css/assets/icon_nextPage.png",
      "_pageLevelProgress": {
          "_isEnabled": false
      }
  },
  {
      "_id":"c-210",
      "_parentId":"b-190",
      "_type":"component",
      "_component":"graphic",
      "_classes":"",
      "_layout":"full",
      "title":"",
      "displayTitle":"",
      "body":"",
      "instruction":"",
      "_pageLevelProgress": {
        "_isEnabled": false
      },
      "_graphic": {
          "alt": "alt text",
          "src": "course/en/images/04_placement_options/m4_main.png",
          "attribution":""
      }
  },
  {
      "_id":"c-220",
      "_parentId":"b-200",
      "_type":"component",
      "_component":"text",
      "_classes":"",
      "_layout":"full",
      "title":"",
      "displayTitle":"",
      "body":"Depending on the objective you select, you’ll have unique options for ad placements (where your ad will appear across Facebook, Instagram, Messenger, and Audience Network).<br><br>Let’s take a look at how that works within the Brand Awareness, Reach, and Video Views objectives.",
      "instruction":"",
      "_pageLevelProgress": {
          "_isEnabled": false
      }
  },
  {
      "_id":"c-230",
      "_parentId":"b-210",
      "_type":"component",
      "_component":"text",
      "_classes":"",
      "_layout":"full",
      "title":"If you choose the Brand Awareness objective, you can run your video ad in the following placements:",
      "displayTitle":"If you choose the Brand Awareness objective, you can run your video ad in the following placements:",
      "body":"<h2>Facebook:</h2>Feeds<br>Instant Articles<br>In-Stream Videos<br>Suggested Videos<br><br><h2>Instagram:</h2>Feed<br>Stories<br><br><h2>Audience Network:</h2>Native, Banner, and Interstitial<br>In-Stream Videos",
      "instruction":"",
      "_pageLevelProgress": {
          "_isEnabled": true
      }
  },
  {
      "_id":"c-240",
      "_parentId":"b-220",
      "_type":"component",
      "_component":"text",
      "_classes":"",
      "_layout":"full",
      "title":"If you choose the Reach objective, you can run your video ad in the following placements:",
      "displayTitle":"If you choose the Reach objective, you can run your video ad in the following placements:",
      "body":"<h2>Facebook:</h2>Feeds<br>Instant Articles<br>In-Stream Videos<br><br><h2>Instagram:</h2>Feed<br>Stories<br><br><h2>Audience Network:</h2>Native, Banner, and Interstitial<br>In-Stream Videos<br><br><h2>Messenger</h2>Home",
      "instruction":"",
      "_pageLevelProgress": {
          "_isEnabled": true
      }
  },
  {
      "_id":"c-250",
      "_parentId":"b-230",
      "_type":"component",
      "_component":"text",
      "_classes":"",
      "_layout":"full",
      "title":"If you choose the Video Views objective, you can run your video ad in the following placements:",
      "displayTitle":"If you choose the Video Views objective, you can run your video ad in the following placements:",
      "body":"<h2>Facebook:</h2>Feeds<br>Instant Articles<br>In-Stream Videos<br>Right Column<br>Suggested Videos<br><br><h2>Instagram:</h2>Feed<br>Stories<br><br><h2>Audience Network:</h2>Native, Banner, and Interstitial<br>In-Stream Videos<br><br>If you're new to running ads across the Facebook family of apps and services, start with some of our Blueprint foundation courses:<br><br><ul><li>Introduction to Instagram</li><li>Create Facebook Ads</li><li>Messenger: Connect and Communicate with Customers</li><li>Extend your Campaign's Reach with Audience Network<br><br>If you're new to the video ad format, check out our <b>Video Foundations</b> course.",
      "instruction":"",
      "_pageLevelProgress": {
          "_isEnabled": true
      }
  },
  {
      "_id": "c-260",
      "_parentId": "b-290",
      "_type": "component",
      "_component": "co-jump",
      "_classes": "color-test",
      "_preLinkBody": "Up Next:",
      "_linkBody": "When You Get Charged",
      "_postLinkBody": ".",
      "_link": "#/id/co-250",
      "_graphic": "adapt/css/assets/icon_nextPage.png",
      "_pageLevelProgress": {
          "_isEnabled": false
      }
  },
  {
      "_id":"c-270",
      "_parentId":"b-300",
      "_type":"component",
      "_component":"graphic",
      "_classes":"",
      "_layout":"full",
      "title":"",
      "displayTitle":"",
      "body":"",
      "instruction":"",
      "_pageLevelProgress": {
        "_isEnabled": false
      },
      "_graphic": {
          "alt": "alt text",
          "src": "course/en/images/05_when_you_get_charged/m5_main.png",
          "attribution":""
      }
  },
  {
      "_id":"c-280",
      "_parentId":"b-300",
      "_type":"component",
      "_component":"text",
      "_classes":"",
      "_layout":"full",
      "title":"Let's go over your billing options. ",
      "displayTitle":"Let's go over your billing options. ",
      "body":"Your billing options are determined by the campaign objective you've chosen.<br><br>You'll find this setting within the ad set level of campaign creation. Look for the section that says, <strong>When You Get Charged</strong>.",
      "instruction":"",
      "_pageLevelProgress": {
          "_isEnabled": true
      }
  },
  {
      "_id":"c-290",
      "_parentId":"b-310",
      "_type":"component",
      "_component":"twoColumn",
      "_classes":"",
      "_layout":"full",
      "title":"2 columns",
      "displayTitle":"",
      "body":"",
      "instruction":"",
      "fontSize":"4vmin",
      "lineHeight":"",
      "fontColor":"#ffffff",
      "leftColumnWidth": "25%",
      "rightColumnWidth": "75%",
      "marginTop": "33px",
      "imageLayout": "left",
      "text": "Remember, the billing option you choose won’t affect the way your ad is optimized for delivery.",
      "_graphic": {
          "alt": "alt text",
          "src": "course/en/images/global/callout.png",
          "attribution":""
      },
      "imageHeading": "",
      "imageSubHeading": ""
  },
  {
      "_id":"c-300",
      "_parentId":"b-320",
      "_type":"component",
      "_component":"graphic",
      "_classes":"",
      "_layout":"full",
      "title":"Billing options within the Reach objective",
      "displayTitle":"Billing options within the Reach objective",
      "body":"",
      "instruction":"",
      "_pageLevelProgress": {
        "_isEnabled": true
      },
      "_graphic": {
          "alt": "alt text",
          "src": "course/en/images/05_when_you_get_charged/video_ads_buying_and_tradeoffs_wygc_screen6.png",
          "attribution":""
      }
  },
  {
      "_id":"c-310",
      "_parentId":"b-320",
      "_type":"component",
      "_component":"text",
      "_classes":"",
      "_layout":"full",
      "title":"",
      "displayTitle":"",
      "body":"If you choose the Reach objective, whether you optimize for reach or impressions, you'll be charged by impressions (CPM).",
      "instruction":"",
      "_pageLevelProgress": {
          "_isEnabled": false
      }
  },
  {
      "_id":"c-320",
      "_parentId":"b-330",
      "_type":"component",
      "_component":"graphic",
      "_classes":"",
      "_layout":"full",
      "title":"Billing options within the Brand Awareness objective",
      "displayTitle":"Billing options within the Brand Awareness objective",
      "body":"",
      "instruction":"",
      "_pageLevelProgress": {
        "_isEnabled": true
      },
      "_graphic": {
          "alt": "alt text",
          "src": "course/en/images/05_when_you_get_charged/video_ads_buying_and_tradeoffs_wygc_screen7.png",
          "attribution":""
      }
  },
  {
      "_id":"c-330",
      "_parentId":"b-330",
      "_type":"component",
      "_component":"text",
      "_classes":"",
      "_layout":"full",
      "title":"",
      "displayTitle":"",
      "body":"If you choose the Brand Awareness objective, you'll be charged by impressions (CPM).",
      "instruction":"",
      "_pageLevelProgress": {
          "_isEnabled": false
      }
  },
  {
      "_id":"c-340",
      "_parentId":"b-340",
      "_type":"component",
      "_component":"graphic",
      "_classes":"",
      "_layout":"full",
      "title":"Billing options within the Video Views objective",
      "displayTitle":"Billing options within the Video Views objective",
      "body":"",
      "instruction":"",
      "_pageLevelProgress": {
        "_isEnabled": true
      },
      "_graphic": {
          "alt": "alt text",
          "src": "course/en/images/05_when_you_get_charged/video_ads_buying_and_tradeoffs_wygc_screen8.png",
          "attribution":""
      }
  },
  {
      "_id":"c-350",
      "_parentId":"b-340",
      "_type":"component",
      "_component":"text",
      "_classes":"",
      "_layout":"full",
      "title":"",
      "displayTitle":"",
      "body":"If you choose the Video Views objective, you can opt to be charged by impressions (CPM) or 10-second video views.<br><br>When you select 10-second-video-views billing, you'll be charged each time your video was watched for a total of at least 10 seconds. For videos shorter than 10 seconds, every time someone watches a specified proportion of your video, it will be counted as a 10-second view.<br><br>Note: Another factor that determines your options for when you get charged is the “buying type” you choose. You can choose from two buying types — reach and frequency buying (for greater control and ad predictability) or Auction buying (for choice and efficiency).<br><br>For more information about how the auction works, take the Ad Auction and Delivery Overview Blueprint course. For more information about reach and frequency buying, take Reach and Frequency Buying on Facebook.",
      "instruction":"",
      "_pageLevelProgress": {
          "_isEnabled": false
      }
  },
  {
      "_id": "c-360",
      "_parentId": "b-350",
      "_type": "component",
      "_component": "co-jump",
      "_classes": "color-test",
      "_preLinkBody": "Up Next:",
      "_linkBody": "Putting It All Together",
      "_postLinkBody": ".",
      "_link": "#/id/co-300",
      "_graphic": "adapt/css/assets/icon_nextPage.png",
      "_pageLevelProgress": {
          "_isEnabled": false
      }
  },
  {
      "_id":"c-370",
      "_parentId":"b-360",
      "_type":"component",
      "_component":"graphic",
      "_classes":"",
      "_layout":"full",
      "title":"",
      "displayTitle":"",
      "body":"",
      "instruction":"",
      "_pageLevelProgress": {
        "_isEnabled": false
      },
      "_graphic": {
          "alt": "alt text",
          "src": "course/en/images/06_putting_it_all_together/m6_main.png",
          "attribution":""
      }
  },
  {
      "_id":"c-380",
      "_parentId":"b-360",
      "_type":"component",
      "_component":"text",
      "_classes":"",
      "_layout":"full",
      "title":"Let's start by revisiting the basics of video ad buying.",
      "displayTitle":"Let's start by revisiting the basics of video ad buying.",
      "body":"<ol><li>Video as an ad format is available across all campaign objectives.</li><li>To be sure you're getting the most value out of your campaign, choose an objective that aligns with your business goal.</li><li>The objective you choose will determine your options for delivery optimization, ad placements, and when you get charged.</li><li>The way you choose to pay for your video ads won't influence the way they're delivered.</li></ol>",
      "instruction":"",
      "_pageLevelProgress": {
          "_isEnabled": true
      }
  },
  {
      "_id":"c-390",
      "_parentId":"b-360",
      "_type":"component",
      "_component":"text",
      "_classes":"",
      "_layout":"full",
      "title":"Now let's talk about the tradeoffs.",
      "displayTitle":"Now let's talk about the tradeoffs.",
      "body":"We began this course by recommending three objectives for marketers building their brand using video ads:<br><br><ul><li>Reach: To show your video ad to as many people as possible.</li><li>Brand Awareness: To show your video ad to people within your target audience who are most likely to remember it.</li><li>Video Views: To show your video ad to the people within your target audience who are most likely to watch it.</li></ul><br><br>Each campaign objective comes with an inherent tradeoff for your campaign's performance. The image below will help you visualize the tradeoffs between the brand-building objectives we've covered in this course.",
      "instruction":"",
      "_pageLevelProgress": {
          "_isEnabled": true
      }
  },
  {
      "_id":"c-400",
      "_parentId":"b-360",
      "_type":"component",
      "_component":"text",
      "_classes":"",
      "_layout":"full",
      "title":"",
      "displayTitle":"",
      "body":"<div style='width:100%'><div style='float:left; width:25%; text-align:left; font-size: 1.6vmin; font-weight:bold'>Shorter views</div><!-- end topLeftTextArea --><div style='float:right; width:25%; text-align:right; font-size: 1.6vmin; font-weight:bold'>Longer views</div><!-- end topRightTextArea --></div><!-- end topText wrapper --><div style='width:100%'><img src='course/en/images/06_putting_it_all_together/campaign_performance.png' alt='Campaign Performance Image' style='margin:0 auto; width:93%; display:block'></div><!-- end image wrapper --><div style='width:100%'><div style='float:left; width:25%; text-align:left; font-size: 1.6vmin; font-weight:bold'>Higher reach</div><!-- end bottomLeftTextArea --><div style='float:right; width:25%; text-align:right; font-size: 1.6vmin; font-weight:bold'>Lower reach</div><!-- end bottomRightTextArea --></div><!-- end bottomText wrapper --><div style='width:100%'><img src='course/en/images/06_putting_it_all_together/brackets.png' alt='Large brackets 3 in a row image' style='margin:0 auto; width:90%; display:block'></div><!-- end image wrapper --><div style='width:100%'><div style='float:left; width:20%; margin:10px 5% 0px 10%; text-align:center; font-size: 1.6vmin; font-weight:bold; color:#4671ff'>REACH OBJECTIVE</div><!-- end farLeftTextArea --><div style='float:left; width:20%; margin:10px 5% 0px 5%; text-align:center; font-size: 1.6vmin; font-weight:bold; color:#4671ff'>BRAND AWARENESS OBJECTIVE</div><!-- end centerTextArea --><div style='float:left; width:20%; margin:10px 10% 0px 5%; text-align:center; font-size: 1.6vmin; font-weight:bold; color:#4671ff'>VIDEO VIEWS OBJECTIVE</div><!-- end rightTextArea --></div><!-- end 3RowsText wrapper -->",
      "instruction":"",
      "_pageLevelProgress": {
          "_isEnabled": false
      }
  },
  {
      "_id":"c-410",
      "_parentId":"b-365",
      "_type":"component",
      "_component":"text",
      "_classes":"",
      "_layout":"full",
      "title":"Campaign reach and view duration",
      "displayTitle":"Campaign reach and view duration",
      "body":"Generally speaking, across media (digital and television included) there are more people who watch videos for a short duration and fewer people who watch videos for longer. There's an inherent tradeoff across reach and the amount of time people spend viewing your video. It costs more to find people who watch for longer and less for people who watch for a shorter amount of time.<br><br>With the Reach objective, the number of impressions (people who receive your video ad) will be the highest. Subsequently, CPM (the cost per 1,000 impressions) will be the lowest.<br><br>At the other end of the spectrum is the Video Views objective. In this case, you optimize for longer view duration, which means we're delivering your video to a subset of the audience (people most likely to watch your video ad for 10 seconds or longer). As a result, you'll have fewer impressions and the cost per impression will be higher.<br><br>In other words, if you want to pay less per impression, use the Reach objective (but don't expect those people to watch your video for as long). If you want longer video views, be prepared to pay a premium for those impressions.",
      "instruction":"",
      "_pageLevelProgress": {
          "_isEnabled": true
      }
  },
  {
      "_id":"c-420",
      "_parentId":"b-370",
      "_type":"component",
      "_component":"text",
      "_classes":"",
      "_layout":"full",
      "title":"Comparing options, cost, and campaign performance",
      "displayTitle":"Comparing options, cost, and campaign performance",
      "body":" <div style='overflow-x:auto;'><table class='table-style-6'><th class='table-style-6' width='25%' style='text-align:left'><strong></strong></th><th class='table-style-6' width='25%' style='text-align:left'><strong>Reach Objective</strong></th><th class='table-style-6' width='25%' style='text-align:left'><strong>Brand Awareness Objective</strong></th><th class='table-style-6' width='25%' style='text-align:left'><strong>Video Views Objective</strong></th><tr><td class='table-style-6' width='25%' style='text-align:left'><strong>Delivery Optimization</strong></td><td class='table-style-6' style='text-align:left'>Reach or Impressions</td><td class='table-style-6' style='text-align:left'>Brand Awareness</td><td class='table-style-6' style='text-align:left'>10-second video views</td></tr><tr><td class='table-style-6' style='text-align:left'><strong>Billing Option</strong></td><td class='table-style-6' style='text-align:left'>CPM</td><td class='table-style-6' style='text-align:left'>CPM</td><td class='table-style-6' style='text-align:left'>CPM / 10-second video views</td></tr><tr><td class='table-style-6' style='text-align:left'><strong>Reach</strong></td><td class='table-style-6' style='text-align:left'>Highest</td><td class='table-style-6' style='text-align:left'>Middle</td><td class='table-style-6' style='text-align:left'>Lowest</td></tr><tr><td class='table-style-6' style='text-align:left'><strong>CPM</strong></td><td class='table-style-6' style='text-align:left'>Lowest</td><td class='table-style-6' style='text-align:left'>Middle</td><td class='table-style-6' style='text-align:left'>Highest</td><tr><td class='table-style-6' style='text-align:left'><strong>View Duration</strong></td><td class='table-style-6' style='text-align:left'>Lowest</td><td class='table-style-6' style='text-align:left'>Middle</td><td class='table-style-6' style='text-align:left'>Highest</td></tr></table><!-- table end --></div><!-- overflow-x:auto; end -->",
      "instruction":"",
      "_pageLevelProgress": {
          "_isEnabled": true
      }
  },
  {
      "_id":"c-430",
      "_parentId":"b-370",
      "_type":"component",
      "_component":"text",
      "_classes":"",
      "_layout":"full",
      "title":"",
      "displayTitle":"",
      "body":"You can use the chart above to compare brand objectives and set expectations around how many people you can expect to reach, and how much you'll pay per thousand impressions (CPM), or per video view of 10+ seconds. You can also easily see what to expect in terms of video view duration across objectives.",
      "instruction":"",
      "_pageLevelProgress": {
          "_isEnabled": false
      }
  },
  {
      "_id": "c-445",
      "_parentId": "b-380",
      "_type": "component",
      "_component": "flipCard",
      "_classes": "",
      "_layout": "full",
      "title": "Myth busting",
      "displayTitle": "Myth busting",
      "body": "You're almost finished. See if you can spot the myths below. Click each card for the answer.",
      "instruction": "",
      "_pageLevelProgress": {
      "_isEnabled": true
    },
      "_items": [
          {
              "frontImageSrc": "course/en/images/06_putting_it_all_together/01_fbb_icon_automated_billing_inverse_0196.png",
              "frontHeading": "The billing option I choose will impact the way my ad is optimized.",
              "fontSizeHeading": "14px",
              "fontSizeText": "14px",
              "frontImgTop": "24px",
              "frontImgbottom": "",
              "frontImgleft": "",
              "frontImgright": "",
              "frontImgWidth": "30%",
              "frontImgHeight": "",
              "frontImgOpacity" : "1",
              "padding": "12px 24px",
              "fontColor": "#ffffff",
              "frontListOfOptions": [
                  "<center><strong>Truth or Myth?</strong></center>"
              ],
              "frontFooter": "",
              "frontFooterColor": "#808080",
              "frontFooterPadding": "12px",
              "backHeading": "",
              "backListOfOptions": [
                  "<strong>It's a myth! The truth is, your billing option doesn’t drive optimization, although it can influence ad delivery and the pacing of your ads.<br><br>Here's why:<br><br>Standard delivery paces the delivery of your ads with the goal of spending your budget evenly throughout your campaign. Spending your budget evenly is directly tied to when and how much you get charged. When you choose a more common event (like impressions), you'll be charged in smaller, more frequent (“smoother”) increments. When you choose a rarer event, you'll be charged in larger, less frequent increments. It's harder to pace your spend smoothly when your remaining budget decreases in a larger amounts and in a less predictable way. For the smoothest pacing and most efficient delivery, we recommend choosing to be charged for impressions.</strong>"
              ],
              "textShadow":""
          },
          {
              "frontImageSrc": "course/en/images/06_putting_it_all_together/02_fbb_icon_media_entertainment_inverse_0178.png",
              "frontHeading": "Video is only ideal for brand-marketing campaigns.",
              "fontSizeHeading": "14px",
              "fontSizeText": "14px",
              "frontImgTop": "24px",
              "frontImgbottom": "",
              "frontImgleft": "",
              "frontImgright": "",
              "frontImgWidth": "30%",
              "frontImgHeight": "",
              "frontImgOpacity" : "1",
              "padding": "12px 24px",
              "fontColor": "#ffffff",
              "frontListOfOptions": [
                  "<center><strong>Truth or Myth?</strong></center>"
              ],
              "frontFooter": "",
              "frontFooterColor": "#808080",
              "frontFooterPadding": "12px",
              "backHeading": "",
              "backListOfOptions": [
                  "<strong>It's a myth! The truth is, advertisers of all sizes and across industries successfully rely on video to achieve a variety of objectives from driving awareness and consideration to conversion and sales.</strong>"
              ],
              "textShadow":""
          },
          {
              "frontImageSrc": "course/en/images/06_putting_it_all_together/03_fbb_icon_financial_services_inverse_0128.png",
              "frontHeading": "It's more expensive to deliver a video than a static image in my ad.",
              "fontSizeHeading": "14px",
              "fontSizeText": "14px",
              "frontImgTop": "24px",
              "frontImgbottom": "",
              "frontImgleft": "",
              "frontImgright": "",
              "frontImgWidth": "30%",
              "frontImgHeight": "",
              "frontImgOpacity" : "1",
              "padding": "12px 24px",
              "fontColor": "#ffffff",
              "frontListOfOptions": [
                  "<center><strong>Truth or Myth?</strong></center>"
              ],
              "frontFooter": "",
              "frontFooterColor": "#808080",
              "frontFooterPadding": "12px",
              "backHeading": "",
              "backListOfOptions": [
                  "<strong>It's a myth! The truth is, ads on Facebook are designed for delivery through the auction so there is no single definable cost per view for video versus static image. One of the key factors in calculating the value of an ad within the auction is creating a positive, relevant experience for the people in our communities. The ad that wins a given auction and gets shown is the one with the highest total value. For more information about the auction, take the Ad Auction and Delivery Overview Blueprint course.</strong>"
              ],
              "textShadow":""
          },
          {
              "frontImageSrc": "course/en/images/06_putting_it_all_together/05_fbb_icon_canvas_ads_inverse_0103.png",
              "frontHeading": "Facebook's delivery system prioritizes static-image ads over video.",
              "fontSizeHeading": "14px",
              "fontSizeText": "14px",
              "frontImgTop": "24px",
              "frontImgbottom": "",
              "frontImgleft": "",
              "frontImgright": "",
              "frontImgWidth": "30%",
              "frontImgHeight": "",
              "frontImgOpacity" : "1",
              "padding": "12px 24px",
              "fontColor": "#ffffff",
              "frontListOfOptions": [
                  "<center><strong>Truth or Myth?</strong></center>"
              ],
              "frontFooter": "",
              "frontFooterColor": "#808080",
              "frontFooterPadding": "12px",
              "backImageSrc": "",
              "backHeading": "",
              "backListOfOptions": [
                  "<strong>It's a myth! News Feed is personalized. If you typically engage with videos, you will likely see more videos in your feed.</strong>"
              ],
              "textShadow":""
          },
          {
              "frontImageSrc": "course/en/images/06_putting_it_all_together/06_fbb_icon_ads_help_inverse_0304.png",
              "frontHeading": "If I shift to using videos in my ads, I can't use any of the great images I already have.",
              "fontSizeHeading": "14px",
              "fontSizeText": "14px",
              "frontImgTop": "24px",
              "frontImgbottom": "",
              "frontImgleft": "",
              "frontImgright": "",
              "frontImgWidth": "30%",
              "frontImgHeight": "",
              "frontImgOpacity" : "1",
              "padding": "12px 24px",
              "fontColor": "#ffffff",
              "frontListOfOptions": [
                  "<center><strong>Truth or Myth?</strong></center>"
              ],
              "frontFooter": "",
              "frontFooterColor": "#808080",
              "frontFooterPadding": "12px",
              "backImageSrc": "",
              "backHeading": "",
              "backListOfOptions": [
                  "<strong>It's a myth! The truth is, advertisers can use their existing static images with voiceover and text to create video ads. Slideshow is an ad format that lets you create looping video ads from images. You can use your print photography and catalog shots. Plus, slideshows don't use much bandwidth, so they're ideal for reaching people with low data connectivity.</strong>"
              ],
              "textShadow":""
          }
      ],
      "_flipType": "singleFlip",
      "_flipTime": 400
  },
  {
      "_id": "c-450",
      "_parentId": "b-390",
      "_type": "component",
      "_component": "co-jump",
      "_classes": "color-test",
      "_preLinkBody": "Up Next:",
      "_linkBody": "Knowledge Check",
      "_postLinkBody": ".",
      "_link": "#/id/co-350",
      "_graphic": "adapt/css/assets/icon_nextPage.png",
      "_pageLevelProgress": {
          "_isEnabled": false
      }
  },
  {
      "_id":"c-460",
      "_parentId":"b-400",
      "_type":"component",
      "_component":"mcq",
      "_setCompletionOn":"inview",
      "_classes":"",
      "_layout":"full",
      "_attempts":1,
      "_shouldDisplayAttempts": false,
      "_questionWeight":1,
      "_isRandom":false,
      "_selectable":1,
      "title": "Question 1 of 5",
      "displayTitle": "Question 1 of 5",
      "body": "If I choose the 10-second-video-views billing option, will I get more 10-second video views than I would have if I chose to pay by impressions?",
      "instruction": "",
      "_items": [
          {
            "text": "Yes",
            "_shouldBeSelected":false
          },
          {
             "text": "Probably",
            "_shouldBeSelected":false
          },
          {
            "text": "No",
            "_shouldBeSelected":true
          },
          {
            "text": "Only if you use the ad auction",
            "_shouldBeSelected":false
          }
      ],
      "_feedback":{
          "correct":"That's right! How you choose to be charged (the billing option you select) doesn’t affect how your video ads will be optimized for delivery.",
          "_incorrect": {
            "notFinal": "",
            "final": "Not quite. How you choose to be charged (the billing option you select) doesn’t affect how your video ads will be optimized for delivery."
          },
          "_partlyCorrect": {
            "notFinal": "",
            "final": ""
          }
      },
      "_buttons": {
      "_submit": {
        "buttonText": "Submit",
        "ariaLabel": "Select here to submit your answer."
      },
      "_reset": {
        "buttonText": "Reset",
        "ariaLabel": ""
      },
      "_showCorrectAnswer": {
        "buttonText": "Correct Answer",
        "ariaLabel": ""
      },
      "_hideCorrectAnswer": {
        "buttonText": "My Answer",
        "ariaLabel": ""
      },
      "_showFeedback": {
        "buttonText": "Show feedback",
        "ariaLabel": ""
      },
          "remainingAttemptsText": "attempts remaining",
          "remainingAttemptText": "final attempt"
      },
      "_pageLevelProgress": {
          "_isEnabled": true
      }
  },
  {
      "_id":"c-470",
      "_parentId":"b-410",
      "_type":"component",
      "_component":"mcq",
      "_setCompletionOn":"inview",
      "_classes":"",
      "_layout":"full",
      "_attempts":1,
      "_shouldDisplayAttempts": false,
      "_questionWeight":1,
      "_isRandom":false,
      "_selectable":1,
      "title": "Question 2 of 5",
      "displayTitle": "Question 2 of 5",
      "body": "For brand marketers creating video ad campaigns, which three campaign objectives do we recommend most?",
      "instruction": "",
      "_items": [
          {
            "text": "Engagement, Video Views, and Lead Generation",
            "_shouldBeSelected":false
          },
          {
             "text": "Brand Awareness, Reach, and Video Views",
            "_shouldBeSelected":true
          },
          {
            "text": "Reach, Conversions, and Video Views",
            "_shouldBeSelected":false
          },
          {
            "text": "App Installs, Reach, and Engagement",
            "_shouldBeSelected":false
          }
      ],
      "_feedback":{
          "correct":"Correct! For brand marketing efforts, we recommend using either the Brand Awareness, Reach, or Video Views objective for video campaigns.",
          "_incorrect": {
            "notFinal": "",
            "final": "Oops. For brand marketing efforts, we actually recommend using either the Brand Awareness, Reach, or Video Views objective for video campaigns."
          },
          "_partlyCorrect": {
            "notFinal": "",
            "final": ""
          }
      },
      "_buttons": {
      "_submit": {
        "buttonText": "Submit",
        "ariaLabel": "Select here to submit your answer."
      },
      "_reset": {
        "buttonText": "Reset",
        "ariaLabel": ""
      },
      "_showCorrectAnswer": {
        "buttonText": "Correct Answer",
        "ariaLabel": ""
      },
      "_hideCorrectAnswer": {
        "buttonText": "My Answer",
        "ariaLabel": ""
      },
      "_showFeedback": {
        "buttonText": "Show feedback",
        "ariaLabel": ""
      },
          "remainingAttemptsText": "attempts remaining",
          "remainingAttemptText": "final attempt"
      },
      "_pageLevelProgress": {
          "_isEnabled": true
      }
  },
  {
      "_id":"c-480",
      "_parentId":"b-420",
      "_type":"component",
      "_component":"mcq",
      "_setCompletionOn":"inview",
      "_classes":"",
      "_layout":"full",
      "_attempts":1,
      "_shouldDisplayAttempts": false,
      "_questionWeight":1,
      "_isRandom":false,
      "_selectable":1,
      "title": "Question 3 of 5",
      "displayTitle": "Question 3 of 5",
      "body": "If you optimize for view duration, what are you most likely to sacrifice?",
      "instruction": "",
      "_items": [
          {
            "text": "Reach",
            "_shouldBeSelected":true
          },
          {
             "text": "The ability to be charged by impressions",
            "_shouldBeSelected":false
          },
          {
            "text": "Likes",
            "_shouldBeSelected":false
          },
          {
            "text": "Engagement",
            "_shouldBeSelected":false
          }
      ],
      "_feedback":{
          "correct":"That's right! When you optimize for video views, the tradeoff is that your video will be delivered to fewer people. That's because the system is focused on getting people to watch your video, not getting your video in front of as many people as possible.",
          "_incorrect": {
            "notFinal": "",
            "final": "Nope. It's reach that you sacrifice when you optimize for video views. It's because the system is focused on getting people to watch your video, not getting your video in front of as many people as possible. You'll still be able to choose the CPM billing option."
          },
          "_partlyCorrect": {
            "notFinal": "",
            "final": ""
          }
      },
      "_buttons": {
      "_submit": {
        "buttonText": "Submit",
        "ariaLabel": "Select here to submit your answer."
      },
      "_reset": {
        "buttonText": "Reset",
        "ariaLabel": ""
      },
      "_showCorrectAnswer": {
        "buttonText": "Correct Answer",
        "ariaLabel": ""
      },
      "_hideCorrectAnswer": {
        "buttonText": "My Answer",
        "ariaLabel": ""
      },
      "_showFeedback": {
        "buttonText": "Show feedback",
        "ariaLabel": ""
      },
          "remainingAttemptsText": "attempts remaining",
          "remainingAttemptText": "final attempt"
      },
      "_pageLevelProgress": {
          "_isEnabled": true
      }
  },
  {
      "_id":"c-490",
      "_parentId":"b-430",
      "_type":"component",
      "_component":"mcq",
      "_setCompletionOn":"inview",
      "_classes":"",
      "_layout":"full",
      "_attempts":1,
      "_shouldDisplayAttempts": false,
      "_questionWeight":1,
      "_isRandom":false,
      "_selectable":1,
      "title": "Question 4 of 5",
      "displayTitle": "Question 4 of 5",
      "body": "Which campaign objective lets you use the video ads format?",
      "instruction": "",
      "_items": [
          {
            "text": "Video Views",
            "_shouldBeSelected":false
          },
          {
             "text": "App Installs",
            "_shouldBeSelected":false
          },
          {
            "text": "Store Visits",
            "_shouldBeSelected":false
          },
          {
            "text": "All of the above",
            "_shouldBeSelected":true
          }
      ],
      "_feedback":{
          "correct":"Yes! All of the above campaign objectives support video ads.",
          "_incorrect": {
            "notFinal": "",
            "final": "Not exactly. The truth is all of our objectives support the video ad format."
          },
          "_partlyCorrect": {
            "notFinal": "",
            "final": ""
          }
      },
      "_buttons": {
      "_submit": {
        "buttonText": "Submit",
        "ariaLabel": "Select here to submit your answer."
      },
      "_reset": {
        "buttonText": "Reset",
        "ariaLabel": ""
      },
      "_showCorrectAnswer": {
        "buttonText": "Correct Answer",
        "ariaLabel": ""
      },
      "_hideCorrectAnswer": {
        "buttonText": "My Answer",
        "ariaLabel": ""
      },
      "_showFeedback": {
        "buttonText": "Show feedback",
        "ariaLabel": ""
      },
          "remainingAttemptsText": "attempts remaining",
          "remainingAttemptText": "final attempt"
      },
      "_pageLevelProgress": {
          "_isEnabled": true
      }
  },
  {
      "_id":"c-500",
      "_parentId":"b-440",
      "_type":"component",
      "_component":"mcq",
      "_setCompletionOn":"inview",
      "_classes":"",
      "_layout":"full",
      "_attempts":1,
      "_shouldDisplayAttempts": false,
      "_questionWeight":1,
      "_isRandom":false,
      "_selectable":1,
      "title": "Question 5 of 5",
      "displayTitle": "Question 5 of 5",
      "body": "Which optimization generally gives you the lowest cost per impression?",
      "instruction": "",
      "_items": [
          {
            "text": "Brand Awareness",
            "_shouldBeSelected":false
          },
          {
             "text": "Reach",
            "_shouldBeSelected":true
          },
          {
            "text": "Video Views",
            "_shouldBeSelected":false
          },
          {
            "text": "All of the above",
            "_shouldBeSelected":false
          }
      ],
      "_feedback":{
          "correct":"You got it! When you choose to optimize your campaign for reach, you tell the system to deliver your video to the maximum number of people within your audience. Because you’re looking for quantity over view duration or ad recall, those impressions tend to be the least expensive.",
          "_incorrect": {
            "notFinal": "",
            "final": "Sorry, that's incorrect. The correct answer is reach. When you choose to optimize your campaign for reach, you tell the system to deliver your video to the maximum number of people within your audience. Because you’re looking for quantity over view duration or ad recall, those impressions tend to be the least expensive."
          },
          "_partlyCorrect": {
            "notFinal": "",
            "final": ""
          }
      },
      "_buttons": {
      "_submit": {
        "buttonText": "Submit",
        "ariaLabel": "Select here to submit your answer."
      },
      "_reset": {
        "buttonText": "Reset",
        "ariaLabel": ""
      },
      "_showCorrectAnswer": {
        "buttonText": "Correct Answer",
        "ariaLabel": ""
      },
      "_hideCorrectAnswer": {
        "buttonText": "My Answer",
        "ariaLabel": ""
      },
      "_showFeedback": {
        "buttonText": "Show feedback",
        "ariaLabel": ""
      },
          "remainingAttemptsText": "attempts remaining",
          "remainingAttemptText": "final attempt"
      },
      "_pageLevelProgress": {
          "_isEnabled": true
      }
  },
  {
      "_id": "c-510",
      "_parentId": "b-450",
      "_type":"component",
      "_component":"co-jump",
      "_classes":"color-test",
      "_autoComplete":true,
      "_preLinkBody":"Click the button below to finish this course. Note: <a href='#'>click here</a> to verify that status bars for each module are complete.<br>",
      "_linkBody":"<div style = 'text-align:center;padding:8px;'><button class='buttons-action'><b>I'M FINISHED WITH THIS COURSE</b></button></div><br> ",
      "_postLinkBody":"",
      "_link":"",
      "_pageLevelProgress": {
          "_isEnabled": false
      }
  }

]
